<svg xmlns="http://www.w3.org/2000/svg" viewBox="0 0 130.41 35.61">
  <defs>
    <style>
      .a {
        fill: #005eb8;
      }
    </style>
  </defs>
  <title>eatonlogo-styleguidelogo</title>
  <path class="a" d="M20.27,35.6l3-10H12.07v-3H24.21L27.1,13h-15v-2.9H27.94L31,0H0V35.6ZM119.8,22.38,113.21,0H96.49V35.6H107V13.29H107l6.45,22.31h16.92V0H119.87V22.38ZM85.94,26.49a7,7,0,0,0,6.87-7.13h0c0-4-2.87-7.57-6.73-7.57s-6.93,3.6-6.93,7.57a6.84,6.84,0,0,0,6.51,7.15h.28M80.34,0H48.05V10.14H58.21V35.6H74.63a20.39,20.39,0,0,1-8-16.45c0-8.57,5.2-17,13.67-19.15M36.49,26.17l-2.88,9.44H50.39l-2.71-9.44ZM42.21,6.83,45.37,18.2H38.8Z" transform="translate(0 0)"/>
</svg>
